AAC,Name,Type,PAAC,Site,Radar
NSW_FA001,New South Wales,region
NSW_PW005,Sydney Metropolitan,public-district,NSW_FA001,,IDR714
NSW_PT131,Sydney,location,NSW_PW005,94767
NSW_PT082,Liverpool,location,NSW_PW005,94765
NSW_PT114,Penrith,location,NSW_PW005,94763
NSW_PT139,Terrey Hills,location,NSW_PW005,94759
NSW_PT123,Richmond,location,NSW_PW005,95753
NSW_PT111,Parramatta,location,NSW_PW005,94764
NSW_PT026,Campbelltown,location,NSW_PW005,94757
NSW_PT028,Canterbury,location,NSW_PW005,94766
NSW_PT237,Bondi,location,NSW_PW005,95766
NSW_PW001,Northern Rivers,public-district,NSW_FA001,,IDR283
NSW_PT023,Byron Bay,location,NSW_PW001,94599
NSW_PT079,Lismore,location,NSW_PW001,94572
NSW_PT058,Grafton,location,NSW_PW001,95570
NSW_PT006,Ballina,location,NSW_PW001,94596
NSW_PT148,Tweed Heads,location,NSW_PW001,94592
NSW_PW002,Mid North Coast,public-district,NSW_FA001,,IDR042
NSW_PT033,Coffs Harbour,location,NSW_PW002,94791
NSW_PT073,Kempsey,location,NSW_PW002,94785
NSW_PT119,Port Macquarie,location,NSW_PW002,94786
NSW_PT136,Taree,location,NSW_PW002,95784
NSW_PT051,Forster,location,NSW_PW002,95778
NSW_PW003,Hunter,public-district,NSW_FA001,,IDR042
NSW_PT102,Newcastle,location,NSW_PW003,94774
NSW_PT084,Maitland,location,NSW_PW003,95775
NSW_PT127,Singleton,location,NSW_PW003,94733
NSW_PT030,Cessnock,location,NSW_PW003,95771
NSW_PT054,Gosford,location,NSW_PW003,94777
NSW_PT125,Scone,location,NSW_PW003,95758
NSW_PT214,Toronto,location,NSW_PW003,94774
NSW_PT215,Wallsend,location,NSW_PW003,94774
NSW_PT216,The Entrance,location,NSW_PW003,95770
NSW_PW004,Northern Tablelands,public-district,NSW_FA001,,IDR693
NSW_PT003,Armidale,location,NSW_PW004,95773
NSW_PT069,Inverell,location,NSW_PW004,94541
NSW_PT053,Glen Innes,location,NSW_PW004,94588
NSW_PW006,Illawarra,public-district,NSW_FA001,,IDR033
NSW_PT018,Bowral,location,NSW_PW006,94747
NSW_PT105,Nowra,location,NSW_PW006,94750
NSW_PT001,Albion Park,location,NSW_PW006,95784
NSW_PT014,Wollongong,location,NSW_PW006,95748
NSW_PW007,South Coast,public-district,NSW_FA001,,IDR033
NSW_PT011,Batemans Bay,location,NSW_PW007,94941
NSW_PT013,Bega,location,NSW_PW007,95931
NSW_PT087,Merimbula,location,NSW_PW007,95929
NSW_PW008,Central Tablelands,public-district,NSW_FA001,,IDR712
NSW_PT109,Orange,location,NSW_PW008,95726
NSW_PT094,Mudgee,location,NSW_PW008,94727
NSW_PT012,Bathurst,location,NSW_PW008,94729
NSW_PT081,Lithgow,location,NSW_PW008,94741
NSW_PT072,Katoomba,location,NSW_PW008,94744
NSW_PT129,Springwood,location,NSW_PW008,95744
NSW_PW009,Southern Tablelands,public-district,NSW_FA001,,IDR712
NSW_PT055,Goulburn,location,NSW_PW009,95716
NSW_PT162,Yass,location,NSW_PW009,95723
NSW_PW011,North West Slopes and Plains,public-district,NSW_FA001,,IDR532
NSW_PT134,Tamworth,location,NSW_PW011,95762
NSW_PT089,Moree,location,NSW_PW011,95527
NSW_PT099,Narrabri,location,NSW_PW011,95734
NSW_PW012,Central West Slopes and Plains,public-district,NSW_FA001,,IDR711
NSW_PT047,Dubbo,location,NSW_PW012,95719
NSW_PT110,Parkes,location,NSW_PW012,95717
NSW_PW013,South West Slopes,public-district,NSW_FA001,,IDR402
NSW_PT163,Young,location,NSW_PW013,94712
NSW_PW014,Riverina,public-district,NSW_FA001,,IDR402
VIC_PT084,Albury-Wodonga,location,NSW_PW014,95896
NSW_PT150,Wagga Wagga,location,NSW_PW014,94910
NSW_PT065,Hay,location,NSW_PW014,94702
NSW_PT045,Deniliquin,location,NSW_PW014,95869
NSW_PT060,Griffith,location,NSW_PW014,95704
NSW_PW016,Upper Western,public-district,NSW_FA001,,IDR402
NSW_PT017,Bourke,location,NSW_PW016,94703
NSW_PT141,Tibooburra,location,NSW_PW016,94485
NSW_PT032,Cobar,location,NSW_PW016,94710
NSW_PW015,Lower Western,public-district,NSW_FA001,,IDR402
NSW_PT070,Ivanhoe,location,NSW_PW015,95697
NSW_PT021,Broken Hill,location,NSW_PW015,94691
NSW_PW010,Snowy Mountains,public-district,NSW_FA001,,IDR402
NSW_PT036,Cooma,location,NSW_PW010,94921
NSW_PT115,Perisher Valley,location,NSW_PW010,94915
NSW_PT024,Cabramurra,location,NSW_PW010,94916
NSW_PT044,Thredbo Top Station,location,NSW_PW010,95909
NSW_PT217,Jindabyne,location,NSW_PW010
NSW_PW017,Australian Capital Territory,public-district,NSW_FA001,,IDR402
NSW_PT027,Canberra,location,NSW_PW017,94926
NSW_PT146,Tuggeranong,location,NSW_PW017,94925
NSW_PT093,Mount Ginini,location,NSW_PW017,95925